stepA.vcd
$date
	Mon Jan 26 23:51:20 2026
$end
$version
	Icarus Verilog
$end
$timescale
	1ps
$end
$scope module tb_cpu1_stepA $end
$var wire 8 ! pc [7:0] $end
$var wire 32 " instr [31:0] $end
$var wire 1 # dmem_we $end
$var wire 32 $ dmem_wdata [31:0] $end
$var wire 8 % dmem_waddr [7:0] $end
$var wire 32 & dmem_rdata [31:0] $end
$var wire 8 ' dmem_raddr [7:0] $end
$var wire 2 ( dmem_mode [1:0] $end
$var reg 1 ) clk $end
$var reg 32 * result [31:0] $end
$var reg 1 + rst_n $end
$scope module u_cpu $end
$var wire 1 , branch_taken_E $end
$var wire 1 ) clk $end
$var wire 32 - d_out [31:0] $end
$var wire 1 . flush_pipeline $end
$var wire 1 / id_rs2_used $end
$var wire 1 0 ifid_write_en $end
$var wire 1 + n_rst $end
$var wire 8 1 pc [7:0] $end
$var wire 8 2 pc_next [7:0] $end
$var wire 1 3 pc_write_en $end
$var wire 1 4 r_we $end
$var wire 1 5 stall_pipeline $end
$var wire 1 6 use_imm_E $end
$var wire 1 # wr_en $end
$var wire 8 7 wr_addr [7:0] $end
$var wire 32 8 wd [31:0] $end
$var wire 32 9 wb_result [31:0] $end
$var wire 3 : s [2:0] $end
$var wire 32 ; rs2_fwd [31:0] $end
$var wire 5 < rs2 [4:0] $end
$var wire 32 = rs1_fwd [31:0] $end
$var wire 5 > rs1 [4:0] $end
$var wire 32 ? rdata2 [31:0] $end
$var wire 32 @ rdata1 [31:0] $end
$var wire 32 A rd_data [31:0] $end
$var wire 8 B rd_addr [7:0] $end
$var wire 5 C rd [4:0] $end
$var wire 8 D pc_plus4 [7:0] $end
$var wire 7 E opcode [6:0] $end
$var wire 2 F mode [1:0] $end
$var wire 8 G jalr_target [7:0] $end
$var wire 32 H jalr_sum [31:0] $end
$var wire 8 I jal_target [7:0] $end
$var wire 32 J jal_sum [31:0] $end
$var wire 32 K jal_link [31:0] $end
$var wire 1 L is_jalr_E $end
$var wire 1 M is_jal_E $end
$var wire 32 N instruction [31:0] $end
$var wire 32 O in_b [31:0] $end
$var wire 32 P in_a [31:0] $end
$var wire 32 Q imm_u [31:0] $end
$var wire 32 R imm_sel [31:0] $end
$var wire 32 S imm_s [31:0] $end
$var wire 32 T imm_j [31:0] $end
$var wire 32 U imm_i [31:0] $end
$var wire 32 V imm_b [31:0] $end
$var wire 7 W funct7 [6:0] $end
$var wire 3 X funct3 [2:0] $end
$var wire 1 Y ex_is_load $end
$var wire 32 Z d_in [31:0] $end
$var wire 8 [ branch_target [7:0] $end
$var wire 32 \ branch_sum [31:0] $end
$var wire 1 ] aluop $end
$var wire 32 ^ alu_res [31:0] $end
$var parameter 32 _ BYTE $end
$var parameter 32 ` DATA_W $end
$var parameter 32 a FUNCT3 $end
$var parameter 32 b FUNCT7 $end
$var parameter 64 c HALF $end
$var parameter 32 d IMM $end
$var parameter 32 e MEMORY_S $end
$var parameter 32 f OP $end
$var parameter 32 g OPCODE_W $end
$var parameter 32 h PC_W $end
$var parameter 32 i REG_S $end
$var parameter 32 j REG_W $end
$var parameter 32 k SHAMT_W $end
$var parameter 32 l STORE_M $end
$var parameter 64 m WORD $end
$var reg 32 n alu_res_M [31:0] $end
$var reg 32 o alu_res_W [31:0] $end
$var reg 1 p aluop_E $end
$var reg 3 q funct3_E [2:0] $end
$var reg 3 r funct3_M [2:0] $end
$var reg 32 s imm_E [31:0] $end
$var reg 32 t inst [31:0] $end
$var reg 7 u opcode_E [6:0] $end
$var reg 7 v opcode_M [6:0] $end
$var reg 7 w opcode_W [6:0] $end
$var reg 8 x pc_D [7:0] $end
$var reg 8 y pc_E [7:0] $end
$var reg 8 z pc_M [7:0] $end
$var reg 8 { pc_W [7:0] $end
$var reg 8 | pc_next_r [7:0] $end
$var reg 8 } pc_reg [7:0] $end
$var reg 5 ~ rd_E [4:0] $end
$var reg 5 !" rd_M [4:0] $end
$var reg 5 "" rd_W [4:0] $end
$var reg 32 #" rd_data_W [31:0] $end
$var reg 32 $" rdata_E1 [31:0] $end
$var reg 32 %" rdata_E2 [31:0] $end
$var reg 32 &" rdata_M1 [31:0] $end
$var reg 32 '" rdata_M2 [31:0] $end
$var reg 5 (" rs1_E [4:0] $end
$var reg 5 )" rs2_E [4:0] $end
$var reg 32 *" store_data_M [31:0] $end
$var reg 1 +" valid_D $end
$var reg 1 ," valid_E $end
$var reg 1 -" valid_M $end
$var reg 1 ." valid_W $end
$scope function rd_data_sel $end
$var reg 32 /" data [31:0] $end
$var reg 3 0" funct [2:0] $end
$upscope $end
$scope module alu $end
$var wire 32 1" a [31:0] $end
$var wire 32 2" b [31:0] $end
$var wire 1 p ext $end
$var wire 3 3" s [2:0] $end
$var wire 5 4" shamt [4:0] $end
$var parameter 32 5" DATA_W $end
$var parameter 32 6" OP $end
$var parameter 32 7" SHAMT_W $end
$var reg 32 8" y [31:0] $end
$upscope $end
$scope module rfile $end
$var wire 5 9" a1 [4:0] $end
$var wire 5 :" a2 [4:0] $end
$var wire 5 ;" a3 [4:0] $end
$var wire 1 ) clk $end
$var wire 32 <" wd [31:0] $end
$var wire 1 4 we $end
$var wire 32 =" x1 [31:0] $end
$var wire 32 >" rd2 [31:0] $end
$var wire 32 ?" rd1 [31:0] $end
$var parameter 32 @" DATA_W $end
$var parameter 32 A" REG_S $end
$var parameter 32 B" REG_W $end
$upscope $end
$upscope $end
$scope module u_dmem $end
$var wire 1 ) clk $end
$var wire 32 C" d_in [31:0] $end
$var wire 2 D" mode [1:0] $end
$var wire 1 + n_rst $end
$var wire 8 E" rd_addr [7:0] $end
$var wire 8 F" wr_addr [7:0] $end
$var wire 1 # wr_en $end
$var wire 32 G" d_out [31:0] $end
$var parameter 32 H" ADDR_WIDTH $end
$var parameter 152 I" DATA_INIT_FILE $end
$var parameter 32 J" DATA_W $end
$var parameter 32 K" M_STACK $end
$var parameter 32 L" M_WIDTH $end
$var parameter 32 M" PC_WIDTH $end
$var parameter 32 N" STORE_M $end
$var parameter 2 O" ST_B $end
$var parameter 2 P" ST_H $end
$var parameter 2 Q" ST_W $end
$upscope $end
$scope module u_imem $end
$var wire 1 ) clk $end
$var wire 1 + n_rst $end
$var wire 8 R" rd_addr [7:0] $end
$var wire 32 S" d_out [31:0] $end
$var parameter 32 T" ADDR_WIDTH $end
$var parameter 32 U" DATA_W $end
$var parameter 144 V" MEM_INIT_FILE $end
$var parameter 32 W" M_STACK $end
$var parameter 32 X" M_WIDTH $end
$var parameter 32 Y" PC_WIDTH $end
$upscope $end
$upscope $end
$enddefinitions $end
$comment Show the parameter values. $end
$dumpall
b1000 Y"
b11111111111111111111111111111111 X"
b100000000 W"
b11011010110010101101101010111110110001101110000011101010011000101011111011100110111010001100101011100000100000100101110011000100110100101101110 V"
b100000 U"
b1000 T"
b10 Q"
b1 P"
b0 O"
b10 N"
b1000 M"
b11111111111111111111111111111111 L"
b100000000 K"
b100000 J"
b1100100011000010111010001100001010111110110001101110000011101010011000101011111011100110111010001100101011100000100000100101110011001000110000101110100 I"
b1000 H"
b101 B"
b100000 A"
b100000 @"
b101 7"
b11 6"
b100000 5"
b100000 m
b10 l
b101 k
b101 j
b100000 i
b1000 h
b111 g
b11 f
b100000000 e
b100000 d
b10000 c
b111 b
b11 a
b100000 `
b1000 _
$end
#0
$dumpvars
bx S"
bx R"
bx G"
bx F"
bx E"
bx D"
bx C"
bx ?"
bx >"
bx ="
bx <"
bx ;"
bx :"
bx 9"
bx 8"
bx 4"
bx 3"
bx 2"
bx 1"
bx 0"
bx /"
x."
x-"
x,"
x+"
bx *"
bx )"
bx ("
bx '"
bx &"
bx %"
bx $"
bx #"
bx ""
bx !"
bx ~
bx }
bx |
bx {
bx z
bx y
bx x
bx w
bx v
bx u
bx t
bx s
bx r
bx q
xp
bx o
bx n
bx ^
x]
bx \
bx [
bx Z
xY
bx X
bx W
bx0 V
bx U
bx0 T
bx S
bx R
bx000000000000 Q
bx P
bx O
bx N
xM
xL
bx K
bx J
bx I
bx H
bx G
bx F
bx E
bx D
bx C
bx B
b0 A
bx @
bx ?
bx >
bx =
bx <
bx ;
bx :
bx 9
bx 8
bx 7
x6
x5
x4
x3
bx 2
bx 1
x0
x/
x.
bx -
x,
0+
bx *
0)
bx (
bx '
bx &
bx %
bx $
x#
bx "
bx !
$end
#5000
06
b0 ^
b0 8"
0.
b0 P
b0 1"
b0 4"
0/
b0 G
b0 O
b0 2"
13
10
b0 ?
b0 >"
b0 @
b0 ?"
b0 R
0,
b0 H
b0 =
b0 ;
b0 8
b0 <"
05
b0 W
b0 <
b0 :"
b0 >
b0 9"
b0 X
b0 C
b0 E
0]
b0 U
b0 S
b0 V
b0 T
b0 Q
b0 [
b0 I
b100 2
b100 |
b0 :
b0 3"
0#
b1000100 A
b10001001000100011001101000100 /"
b0 0"
b0 (
b0 F
b0 D"
b10001001000100011001101000100 &
b10001001000100011001101000100 Z
b10001001000100011001101000100 G"
b0 '
b0 B
b0 E"
b0 %
b0 7
b0 F"
04
b0 9
b100 D
b10000010000011 "
b10000010000011 N
b10000010000011 S"
b0 !
b0 1
b0 R"
b0 }
b0 x
0+"
b0 t
0,"
b0 \
b0 J
b0 y
b0 s
0M
0L
0Y
b0 u
0p
b0 q
b0 ~
b0 %"
b0 $"
b0 $
b0 -
b0 C"
b0 *"
0-"
b0 z
b0 '"
b0 &"
b0 v
b0 r
b0 !"
b0 n
0."
b100 K
b0 {
b0 o
b0 ""
b0 ;"
b0 #"
b0 w
1)
#10000
0)
#15000
1)
#20000
0)
#25000
1)
#30000
0)
#35000
1)
#40000
0)
#45000
1+
1)
#50000
0)
#55000
b1000100 8
b1000100 <"
b10 X
b1 C
b11 E
b1 S
b100000000000 V
b10000000000000 T
b10000000000000 Q
b1000 2
b1000 |
b1000100 #"
b0 )"
b0 ("
1+"
b10000010000011 t
b1000 D
b100000010001000100011 "
b100000010001000100011 N
b100000010001000100011 S"
b100 !
b100 1
b100 R"
b100 }
1)
#60000
0)
#65000
03
00
15
16
1/
bx ?
bx >"
b100 R
b1100 2
b1100 |
b1 <
b1 :"
b100 C
b100011 E
b1 U
b100 S
b100 V
b10100000000000 T
b100000010000000000000 Q
b1100 D
b10000000010000100000011 "
b10000000010000100000011 N
b10000000010000100000011 S"
b1000 !
b1000 1
b1000 R"
b1000 }
b100 x
b100000010001000100011 t
1,"
1Y
b11 u
b10 q
b1 ~
1)
#70000
0)
#75000
06
13
10
05
b10001001000100011001101000100 A
b10 0"
b10 (
b10 F
b10 D"
1-"
b11 v
b10 r
b1 !"
0,"
0Y
b0 u
b0 q
b0 ~
1)
#80000
0)
#85000
14
16
b100 ^
b100 8"
b100 4"
0/
b100 R
b100 O
b100 2"
b10001001000100011001101000100 ;
b10000 2
b10000 |
b100 <
b100 :"
b10 C
b11 E
b100 U
b10 S
b10 V
b10000000000100 T
b10000000010000000000000 Q
b1000 [
b1000 I
b100 G
b1000100 A
b0 0"
b0 (
b0 F
b0 D"
b10001001000100011001101000100 9
b10001001000100011001101000100 8
b10001001000100011001101000100 <"
b10000 D
b1000001000100001100011 "
b1000001000100001100011 N
b1000001000100001100011 S"
b1100 !
b1100 1
b1100 R"
b1100 }
b1000 x
b10000000010000100000011 t
1,"
b100 y
b1000 \
b1000 J
b100 H
b100 s
b100011 u
b10 q
b1 )"
b100 ~
bx %"
0-"
b0 v
b0 r
b0 !"
1."
b1 ""
b1 ;"
b10001001000100011001101000100 #"
b11 w
1)
#90000
0)
#95000
03
00
15
b1000100 8
b1000100 <"
b100 ;
b10001001000100011001101000100 @
b10001001000100011001101000100 ?"
1/
b10000 R
04
b0 9
1#
b0 A
b0 /"
b10 0"
b10 (
b10 F
b10 D"
b0 &
b0 Z
b0 G"
b100 '
b100 B
b100 E"
b100 %
b100 7
b100 F"
b1100 [
b1100 I
b10 <
b10 :"
b1 >
b1 9"
b0 X
b10000 C
b1100011 E
b10 U
b10000 S
b10000 V
b1000000000000010 T
b1000001000000000000000 Q
b10100 2
b10100 |
b10001001000100011001101000100 ="
0."
b0 ""
b0 ;"
b1000100 #"
b0 w
b10001001000100011001101000100 $
b10001001000100011001101000100 -
b10001001000100011001101000100 C"
b10001001000100011001101000100 *"
1-"
b100 z
bx '"
b100011 v
b10 r
b100 !"
b100 n
b1100 \
b1100 J
b1000 y
1Y
b11 u
b100 )"
b10 ~
b1100 x
b1000001000100001100011 t
b10100 D
b110010011 "
b110010011 N
b110010011 S"
b10000 !
b10000 1
b10000 R"
b10000 }
1)
#100000
0)
#105000
06
13
10
05
b0 8
b0 <"
b0 ^
b0 8"
b0 4"
b0 ;
b10001001000100011001101000100 A
b10001001000100011001101000100 /"
b0 O
b0 2"
b1000 [
b1000 I
b0 G
0#
b100 9
b10001001000100011001101000100 &
b10001001000100011001101000100 Z
b10001001000100011001101000100 G"
0,"
b1000 \
b1000 J
b0 H
b0 s
0Y
b0 u
b0 q
b0 )"
b0 ~
b0 %"
b100 $
b100 -
b100 C"
b100 *"
b1000 z
b11 v
b10 !"
1."
b1000 K
b100 {
b100 o
b100 ""
b100 ;"
b0 #"
b100011 w
1)
#110000
0)
#115000
14
1.
b100010010001000110011010001000 ^
b100010010001000110011010001000 8"
b100 4"
b10001001000100011001101000100 P
b10001001000100011001101000100 1"
b0 R
b10001001000100011001101000100 O
b10001001000100011001101000100 2"
1,
b10001001000100011001101000100 ;
b10001001000100011001101000100 =
b0 ?
b0 >"
b0 @
b0 ?"
0/
b10001001000100011001101000100 9
b10001001000100011001101000100 8
b10001001000100011001101000100 <"
b1000100 A
b0 0"
b0 (
b0 F
b0 D"
b0 '
b0 B
b0 E"
b0 %
b0 7
b0 F"
b11100 [
b11100 I
b1010100 G
b0 <
b0 :"
b0 >
b0 9"
b11 C
b10011 E
b0 U
b11 S
b100000000010 V
b0 T
b0 Q
b11100 2
b11100 |
b1100 K
b1000 {
b10 ""
b10 ;"
b10001001000100011001101000100 #"
b11 w
b0 $
b0 -
b0 C"
b0 *"
0-"
b0 '"
b0 v
b0 r
b0 !"
b0 n
1,"
b1100 y
b11100 \
b11100 J
b10001001000100011001101010100 H
b10000 s
b1100011 u
b10 )"
b1 ("
b10000 ~
bx %"
b10001001000100011001101000100 $"
b10000 x
b110010011 t
b11000 D
b1100000010010000100011 "
b1100000010010000100011 N
b1100000010010000100011 S"
b10100 !
b10100 1
b10100 R"
b10100 }
1)
#120000
0)
#125000
b0 ^
b0 8"
b0 4"
0.
b0 P
b0 1"
b0 O
b0 2"
b1000100 8
b1000100 <"
b0 ;
0,
b0 =
bx A
bx /"
b100000 2
b100000 |
b0 [
b0 I
b0 G
bx &
bx Z
bx G"
b10001000 '
b10001000 B
b10001000 E"
b10001000 %
b10001000 7
b10001000 F"
04
b0 9
b100000 D
b100000000000110010011 "
b100000000000110010011 N
b100000000000110010011 S"
b11100 !
b11100 1
b11100 R"
b11100 }
0+"
0,"
b0 y
b0 \
b0 J
b0 H
b0 s
b0 u
b0 )"
b0 ("
b0 ~
b0 %"
b0 $"
b10001001000100011001101000100 $
b10001001000100011001101000100 -
b10001001000100011001101000100 C"
b10001001000100011001101000100 *"
1-"
b1100 z
bx '"
b10001001000100011001101000100 &"
b1100011 v
b10000 !"
b100010010001000110011010001000 n
0."
b0 o
b0 ""
b0 ;"
b1000100 #"
b0 w
1)
#130000
0)
#135000
16
bx 8
bx <"
b1000100 A
b10001001000100011001101000100 /"
b10001001000100011001101000100 ?
b10001001000100011001101000100 >"
b1 R
b100010010001000110011010001000 9
b10001001000100011001101000100 &
b10001001000100011001101000100 Z
b10001001000100011001101000100 G"
b0 '
b0 B
b0 E"
b0 %
b0 7
b0 F"
b10000 [
b10000 I
b1 <
b1 :"
b1 U
b100000000000 T
b100000000000000000000 Q
b100100 2
b100100 |
1."
b10000 K
b1100 {
b100010010001000110011010001000 o
b10000 ""
b10000 ;"
bx #"
b1100011 w
b0 $
b0 -
b0 C"
b0 *"
0-"
b0 z
b0 '"
b0 &"
b0 v
b0 !"
b0 n
b10000 \
b10000 J
b10000 y
b10011 u
b11 ~
1+"
b11100 x
b100000000000110010011 t
b100100 D
b1100000010010000100011 "
b1100000010010000100011 N
b1100000010010000100011 S"
b100000 !
b100000 1
b100000 R"
b100000 }
1)
#140000
0)
#145000
1/
b1000100 8
b1000100 <"
bx ?
bx >"
b1000 R
b1 ^
b1 8"
b1 4"
b10001001000100011001101000100 ;
b101000 2
b101000 |
b11 <
b11 :"
b10 X
b1000 C
b100011 E
b11 U
b1000 S
b1000 V
b10100000000010 T
b1100000010000000000000 Q
b1 O
b1 2"
b11101 [
b11101 I
b1 G
b0 9
b101000 D
b1101111 "
b1101111 N
b1101111 S"
b100100 !
b100100 1
b100100 R"
b100100 }
b100000 x
b1100000010010000100011 t
1,"
b11100 y
b11101 \
b11101 J
b1 H
b1 s
b1 )"
b10001001000100011001101000100 %"
b10000 z
b10011 v
b11 !"
0."
b100 K
b0 {
b0 o
b0 ""
b0 ;"
b1000100 #"
b0 w
1)
#150000
0)
#155000
b0 8
b0 <"
16
0/
b0 R
b110011 A
b1000100000100010010001000110011 /"
b1000 4"
b1000 ^
b1000 8"
b1 ;
b0 ?
b0 >"
b1000100000100010010001000110011 &
b1000100000100010010001000110011 Z
b1000100000100010010001000110011 G"
b1 '
b1 B
b1 E"
b1 %
b1 7
b1 F"
b1000 O
b1000 2"
b101000 [
b101000 I
b1000 G
b0 :
b0 3"
b0 <
b0 :"
b0 X
b0 C
b1101111 E
b0 U
b0 S
b0 V
b0 T
b0 Q
b101100 2
b101100 |
b10100 K
b10000 {
b11 ""
b11 ;"
b10011 w
b10001001000100011001101000100 $
b10001001000100011001101000100 -
b10001001000100011001101000100 C"
b10001001000100011001101000100 *"
1-"
b11100 z
b10001001000100011001101000100 '"
b1 n
b100000 y
b101000 \
b101000 J
b1000 H
b1000 s
b100011 u
b10 q
b11 )"
b1000 ~
bx %"
b100100 x
b1101111 t
b101100 D
bx "
bx N
bx S"
b101000 !
b101000 1
b101000 R"
b101000 }
1)
#160000
0)
#165000
bx R
bx ?
bx >"
bx @
bx ?"
x/
b0 ^
b0 8"
b0 4"
1.
b1 8
b1 <"
bx W
bx <
bx :"
bx >
bx 9"
bx X
bx C
bx E
x]
bx U
bx S
bx0 V
bx0 T
bx000000000000 Q
b0 O
b0 2"
b100100 [
b100100 I
b0 G
b100100 2
b100100 |
1#
b0 A
b0 /"
b10 0"
b10 (
b10 F
b10 D"
b0 ;
b0 &
b0 Z
b0 G"
b1000 '
b1000 B
b1000 E"
b1000 %
b1000 7
b1000 F"
14
b1 9
b110000 D
b101100 !
b101100 1
b101100 R"
b101100 }
b101000 x
bx t
b100100 y
b100100 \
b100100 J
b0 H
b0 s
1M
b1101111 u
b0 q
b0 )"
b0 ~
b0 %"
b1 $
b1 -
b1 C"
b1 *"
b100000 z
bx '"
b100011 v
b10 r
b1000 !"
b1000 n
1."
b100000 K
b11100 {
b1 o
b110011 #"
1)
#170000
0)
#175000
04
06
b0 8
b0 <"
0.
b1000 9
0#
b1000100 A
b10001001000100011001101000100 /"
b0 0"
b0 (
b0 F
b0 D"
b0 '
b0 B
b0 E"
b0 %
b0 7
b0 F"
b0 [
b0 I
b101000 2
b101000 |
b10001001000100011001101000100 &
b10001001000100011001101000100 Z
b10001001000100011001101000100 G"
b100100 K
b100000 {
b1000 o
b1000 ""
b1000 ;"
b0 #"
b100011 w
b0 $
b0 -
b0 C"
b0 *"
b100100 z
b0 '"
b1101111 v
b0 r
b0 !"
b0 n
0,"
b0 \
b0 J
b0 y
0M
b0 u
0+"
b101000 D
b1101111 "
b1101111 N
b1101111 S"
b100100 !
b100100 1
b100100 R"
b100100 }
1)
#180000
0)
#185000
14
x3
x0
0/
bx 4"
x5
b101000 8
b101000 <"
b0 ?
b0 >"
b0 @
b0 ?"
b0 R
bx :
bx 3"
bx O
bx 2"
b0 ^
b0 8"
x,
bx ;
bx =
b0 W
b0 <
b0 :"
b0 >
b0 9"
b0 X
b0 C
b1101111 E
0]
b0 U
b0 S
b0 V
b0 T
b0 Q
bx [
bx I
bx G
x6
bx P
bx 1"
x.
b101100 2
b101100 |
b0 9
b101100 D
bx "
bx N
bx S"
b101000 !
b101000 1
b101000 R"
b101000 }
1+"
b100100 x
b1101111 t
b101000 y
bx \
bx J
bx H
bx s
xM
xL
xY
bx u
xp
bx q
bx )"
bx ("
bx ~
bx %"
bx $"
0-"
b0 z
b0 v
b101000 K
b100100 {
b0 o
b0 ""
b0 ;"
b1000100 #"
b1101111 w
1)
#190000
0)
#195000
16
13
10
b0 4"
b0 P
b0 1"
b1000100 8
b1000100 <"
05
b0 O
b0 2"
b0 G
1.
0,
b0 ;
b0 H
b0 =
04
b0 A
bx 0"
bx (
bx F
bx D"
b100100 [
b100100 I
b100100 2
b100100 |
b0 ^
b0 8"
b0 :
b0 3"
0."
b100 K
b0 {
b0 w
bx $
bx -
bx C"
bx *"
b101000 z
bx '"
bx &"
bx v
bx r
bx !"
1,"
b100100 y
b100100 \
b100100 J
b0 s
1M
0L
0Y
b1101111 u
0p
b0 q
b0 )"
b0 ("
b0 ~
b0 %"
b0 $"
1)
#200000
0)
#205000
06
0.
b0 [
b0 I
b101000 2
b101000 |
b1000100 A
b0 0"
b0 (
b0 F
b0 D"
b0x0xx00 8
b0x0xx00 <"
b101000 D
b1101111 "
b1101111 N
b1101111 S"
b100100 !
b100100 1
b100100 R"
b100100 }
0+"
0,"
b0 \
b0 J
b0 y
0M
b0 u
b0 $
b0 -
b0 C"
b0 *"
1-"
b100100 z
b0 '"
b0 &"
b1101111 v
b0 r
b0 !"
b101100 K
b101000 {
bx ""
bx ;"
b0 #"
bx w
1)
#210000
0)
#215000
16
b101000 8
b101000 <"
1.
14
b100100 [
b100100 I
b100100 2
b100100 |
1."
b101000 K
b100100 {
b0 ""
b0 ;"
b1000100 #"
b1101111 w
0-"
b0 z
b0 v
b100100 \
b100100 J
b100100 y
1M
b1101111 u
1+"
b101100 D
bx "
bx N
bx S"
b101000 !
b101000 1
b101000 R"
b101000 }
1)
#220000
0)
#225000
06
b1000100 8
b1000100 <"
0.
b0 [
b0 I
b101000 2
b101000 |
04
b101000 D
b1101111 "
b1101111 N
b1101111 S"
b100100 !
b100100 1
b100100 R"
b100100 }
0+"
b0 \
b0 J
b0 y
0M
b0 u
b100100 z
b1101111 v
0."
b100 K
b0 {
b0 w
1)
#230000
0)
#235000
b101000 8
b101000 <"
16
1.
b100100 [
b100100 I
b100100 2
b100100 |
b101000 K
b100100 {
b1101111 w
b0 z
b0 v
b100100 \
b100100 J
b100100 y
1M
b1101111 u
1+"
b101100 D
bx "
bx N
bx S"
b101000 !
b101000 1
b101000 R"
b101000 }
1)
#240000
0)
#245000
06
b1000100 8
b1000100 <"
0.
b0 [
b0 I
b101000 2
b101000 |
b101000 D
b1101111 "
b1101111 N
b1101111 S"
b100100 !
b100100 1
b100100 R"
b100100 }
0+"
b0 \
b0 J
b0 y
0M
b0 u
b100100 z
b1101111 v
b100 K
b0 {
b0 w
1)
#250000
0)
#255000
b101000 8
b101000 <"
16
1.
b100100 [
b100100 I
b100100 2
b100100 |
b101000 K
b100100 {
b1101111 w
b0 z
b0 v
b100100 \
b100100 J
b100100 y
1M
b1101111 u
1+"
b101100 D
bx "
bx N
bx S"
b101000 !
b101000 1
b101000 R"
b101000 }
1)
#260000
0)
#265000
06
b1000100 8
b1000100 <"
0.
b0 [
b0 I
b101000 2
b101000 |
b101000 D
b1101111 "
b1101111 N
b1101111 S"
b100100 !
b100100 1
b100100 R"
b100100 }
0+"
b0 \
b0 J
b0 y
0M
b0 u
b100100 z
b1101111 v
b100 K
b0 {
b0 w
1)
#270000
0)
#275000
b101000 8
b101000 <"
16
1.
b100100 [
b100100 I
b100100 2
b100100 |
b101000 K
b100100 {
b1101111 w
b0 z
b0 v
b100100 \
b100100 J
b100100 y
1M
b1101111 u
1+"
b101100 D
bx "
bx N
bx S"
b101000 !
b101000 1
b101000 R"
b101000 }
1)
#280000
0)
#285000
06
b1000100 8
b1000100 <"
0.
b0 [
b0 I
b101000 2
b101000 |
b101000 D
b1101111 "
b1101111 N
b1101111 S"
b100100 !
b100100 1
b100100 R"
b100100 }
0+"
b0 \
b0 J
b0 y
0M
b0 u
b100100 z
b1101111 v
b100 K
b0 {
b0 w
1)
#290000
0)
#295000
b101000 8
b101000 <"
16
1.
b100100 [
b100100 I
b100100 2
b100100 |
b101000 K
b100100 {
b1101111 w
b0 z
b0 v
b100100 \
b100100 J
b100100 y
1M
b1101111 u
1+"
b101100 D
bx "
bx N
bx S"
b101000 !
b101000 1
b101000 R"
b101000 }
1)
#300000
0)
#305000
06
b1000100 8
b1000100 <"
0.
b0 [
b0 I
b101000 2
b101000 |
b101000 D
b1101111 "
b1101111 N
b1101111 S"
b100100 !
b100100 1
b100100 R"
b100100 }
0+"
b0 \
b0 J
b0 y
0M
b0 u
b100100 z
b1101111 v
b100 K
b0 {
b0 w
1)
#310000
0)
#315000
b101000 8
b101000 <"
16
1.
b100100 [
b100100 I
b100100 2
b100100 |
b101000 K
b100100 {
b1101111 w
b0 z
b0 v
b100100 \
b100100 J
b100100 y
1M
b1101111 u
1+"
b101100 D
bx "
bx N
bx S"
b101000 !
b101000 1
b101000 R"
b101000 }
1)
#320000
0)
#325000
06
b1000100 8
b1000100 <"
0.
b0 [
b0 I
b101000 2
b101000 |
b101000 D
b1101111 "
b1101111 N
b1101111 S"
b100100 !
b100100 1
b100100 R"
b100100 }
0+"
b0 \
b0 J
b0 y
0M
b0 u
b100100 z
b1101111 v
b100 K
b0 {
b0 w
1)
#330000
0)
#335000
b101000 8
b101000 <"
16
1.
b100100 [
b100100 I
b100100 2
b100100 |
b101000 K
b100100 {
b1101111 w
b0 z
b0 v
b100100 \
b100100 J
b100100 y
1M
b1101111 u
1+"
b101100 D
bx "
bx N
bx S"
b101000 !
b101000 1
b101000 R"
b101000 }
1)
#340000
0)
#345000
06
b1000100 8
b1000100 <"
0.
b0 [
b0 I
b101000 2
b101000 |
b101000 D
b1101111 "
b1101111 N
b1101111 S"
b100100 !
b100100 1
b100100 R"
b100100 }
0+"
b0 \
b0 J
b0 y
0M
b0 u
b100100 z
b1101111 v
b100 K
b0 {
b0 w
1)
#350000
0)
#355000
b101000 8
b101000 <"
16
1.
b100100 [
b100100 I
b100100 2
b100100 |
b101000 K
b100100 {
b1101111 w
b0 z
b0 v
b100100 \
b100100 J
b100100 y
1M
b1101111 u
1+"
b101100 D
bx "
bx N
bx S"
b101000 !
b101000 1
b101000 R"
b101000 }
1)
#360000
0)
#365000
06
b1000100 8
b1000100 <"
0.
b0 [
b0 I
b101000 2
b101000 |
b101000 D
b1101111 "
b1101111 N
b1101111 S"
b100100 !
b100100 1
b100100 R"
b100100 }
0+"
b0 \
b0 J
b0 y
0M
b0 u
b100100 z
b1101111 v
b100 K
b0 {
b0 w
1)
#370000
0)
#375000
b101000 8
b101000 <"
16
1.
b100100 [
b100100 I
b100100 2
b100100 |
b101000 K
b100100 {
b1101111 w
b0 z
b0 v
b100100 \
b100100 J
b100100 y
1M
b1101111 u
1+"
b101100 D
bx "
bx N
bx S"
b101000 !
b101000 1
b101000 R"
b101000 }
1)
#380000
0)
#385000
06
b1000100 8
b1000100 <"
0.
b0 [
b0 I
b101000 2
b101000 |
b101000 D
b1101111 "
b1101111 N
b1101111 S"
b100100 !
b100100 1
b100100 R"
b100100 }
0+"
b0 \
b0 J
b0 y
0M
b0 u
b100100 z
b1101111 v
b100 K
b0 {
b0 w
1)
#390000
0)
#395000
b101000 8
b101000 <"
16
1.
b100100 [
b100100 I
b100100 2
b100100 |
b101000 K
b100100 {
b1101111 w
b0 z
b0 v
b100100 \
b100100 J
b100100 y
1M
b1101111 u
1+"
b101100 D
bx "
bx N
bx S"
b101000 !
b101000 1
b101000 R"
b101000 }
1)
#400000
0)
#405000
06
b1000100 8
b1000100 <"
0.
b0 [
b0 I
b101000 2
b101000 |
b101000 D
b1101111 "
b1101111 N
b1101111 S"
b100100 !
b100100 1
b100100 R"
b100100 }
0+"
b0 \
b0 J
b0 y
0M
b0 u
b100100 z
b1101111 v
b100 K
b0 {
b0 w
1)
#410000
0)
#415000
b101000 8
b101000 <"
16
1.
b100100 [
b100100 I
b100100 2
b100100 |
b101000 K
b100100 {
b1101111 w
b0 z
b0 v
b100100 \
b100100 J
b100100 y
1M
b1101111 u
1+"
b101100 D
bx "
bx N
bx S"
b101000 !
b101000 1
b101000 R"
b101000 }
1)
#420000
0)
#425000
06
b1000100 8
b1000100 <"
0.
b0 [
b0 I
b101000 2
b101000 |
b101000 D
b1101111 "
b1101111 N
b1101111 S"
b100100 !
b100100 1
b100100 R"
b100100 }
0+"
b0 \
b0 J
b0 y
0M
b0 u
b100100 z
b1101111 v
b100 K
b0 {
b0 w
1)
#430000
0)
#435000
b101000 8
b101000 <"
16
1.
b100100 [
b100100 I
b100100 2
b100100 |
b101000 K
b100100 {
b1101111 w
b0 z
b0 v
b100100 \
b100100 J
b100100 y
1M
b1101111 u
1+"
b101100 D
bx "
bx N
bx S"
b101000 !
b101000 1
b101000 R"
b101000 }
1)
#440000
0)
#445000
06
b1000100 8
b1000100 <"
0.
b0 [
b0 I
b101000 2
b101000 |
b101000 D
b1101111 "
b1101111 N
b1101111 S"
b100100 !
b100100 1
b100100 R"
b100100 }
0+"
b0 \
b0 J
b0 y
0M
b0 u
b100100 z
b1101111 v
b100 K
b0 {
b0 w
1)
#450000
0)
